[
  {
    "id": 1,
    "first_name": "Monica",
    "last_name": "Rowena",
    "email": "mrowena0@berkeley.edu",
    "gender": "Bigender"
  },
  {
    "id": 2,
    "first_name": "Veriee",
    "last_name": "Causnett",
    "email": "vcausnett1@dailymail.co.uk",
    "gender": "Female"
  },
  {
    "id": 3,
    "first_name": "Christiane",
    "last_name": "Kitchenside",
    "email": "ckitchenside2@tinyurl.com",
    "gender": "Female"
  },
  {
    "id": 4,
    "first_name": "Nicol",
    "last_name": "Demangeot",
    "email": "ndemangeot3@hud.gov",
    "gender": "Male"
  },
  {
    "id": 5,
    "first_name": "Blondy",
    "last_name": "Arkcoll",
    "email": "barkcoll4@facebook.com",
    "gender": "Female"
  },
  {
    "id": 6,
    "first_name": "Justinian",
    "last_name": "Bridgett",
    "email": "jbridgett5@godaddy.com",
    "gender": "Male"
  },
  {
    "id": 7,
    "first_name": "Forest",
    "last_name": "Wattins",
    "email": "fwattins6@newyorker.com",
    "gender": "Male"
  },
  {
    "id": 8,
    "first_name": "Norry",
    "last_name": "Cabell",
    "email": "ncabell7@cbsnews.com",
    "gender": "Female"
  },
  {
    "id": 9,
    "first_name": "Grove",
    "last_name": "Higgan",
    "email": "ghiggan8@salon.com",
    "gender": "Male"
  },
  {
    "id": 10,
    "first_name": "Kerry",
    "last_name": "Ruddoch",
    "email": "kruddoch9@dmoz.org",
    "gender": "Female"
  },
  {
    "id": 11,
    "first_name": "Emalee",
    "last_name": "McCreedy",
    "email": "emccreedya@wikia.com",
    "gender": "Female"
  },
  {
    "id": 12,
    "first_name": "Lanae",
    "last_name": "Druhan",
    "email": "ldruhanb@odnoklassniki.ru",
    "gender": "Female"
  },
  {
    "id": 13,
    "first_name": "Eddie",
    "last_name": "Witherbed",
    "email": "ewitherbedc@forbes.com",
    "gender": "Female"
  },
  {
    "id": 14,
    "first_name": "Frasier",
    "last_name": "Duchatel",
    "email": "fduchateld@tamu.edu",
    "gender": "Male"
  },
  {
    "id": 15,
    "first_name": "Melisent",
    "last_name": "Dyter",
    "email": "mdytere@marriott.com",
    "gender": "Female"
  },
  {
    "id": 16,
    "first_name": "Selestina",
    "last_name": "Heaney",
    "email": "sheaneyf@usnews.com",
    "gender": "Female"
  },
  {
    "id": 17,
    "first_name": "Elston",
    "last_name": "Callway",
    "email": "ecallwayg@networkadvertising.org",
    "gender": "Male"
  },
  {
    "id": 18,
    "first_name": "Welbie",
    "last_name": "Absolon",
    "email": "wabsolonh@i2i.jp",
    "gender": "Male"
  },
  {
    "id": 19,
    "first_name": "Norrie",
    "last_name": "Iglesiaz",
    "email": "niglesiazi@nba.com",
    "gender": "Agender"
  },
  {
    "id": 20,
    "first_name": "Welch",
    "last_name": "Sickling",
    "email": "wsicklingj@examiner.com",
    "gender": "Male"
  },
  {
    "id": 21,
    "first_name": "Latisha",
    "last_name": "Barthelmes",
    "email": "lbarthelmesk@theguardian.com",
    "gender": "Female"
  },
  {
    "id": 22,
    "first_name": "Leeann",
    "last_name": "Grannell",
    "email": "lgrannelll@weibo.com",
    "gender": "Female"
  },
  {
    "id": 23,
    "first_name": "Bernice",
    "last_name": "Skyppe",
    "email": "bskyppem@furl.net",
    "gender": "Female"
  },
  {
    "id": 24,
    "first_name": "Mimi",
    "last_name": "Tooting",
    "email": "mtootingn@vkontakte.ru",
    "gender": "Female"
  },
  {
    "id": 25,
    "first_name": "Darn",
    "last_name": "Gallier",
    "email": "dgalliero@go.com",
    "gender": "Male"
  },
  {
    "id": 26,
    "first_name": "Cathrine",
    "last_name": "Grishankov",
    "email": "cgrishankovp@japanpost.jp",
    "gender": "Female"
  },
  {
    "id": 27,
    "first_name": "Den",
    "last_name": "Longbothom",
    "email": "dlongbothomq@goodreads.com",
    "gender": "Male"
  },
  {
    "id": 28,
    "first_name": "Becky",
    "last_name": "Dilleway",
    "email": "bdillewayr@ning.com",
    "gender": "Female"
  },
  {
    "id": 29,
    "first_name": "Rickert",
    "last_name": "Eyckelberg",
    "email": "reyckelbergs@blogspot.com",
    "gender": "Male"
  },
  {
    "id": 30,
    "first_name": "Arnaldo",
    "last_name": "Goodridge",
    "email": "agoodridget@washingtonpost.com",
    "gender": "Male"
  },
  {
    "id": 31,
    "first_name": "Selig",
    "last_name": "Maylin",
    "email": "smaylinu@marriott.com",
    "gender": "Male"
  },
  {
    "id": 32,
    "first_name": "Fred",
    "last_name": "McSorley",
    "email": "fmcsorleyv@google.fr",
    "gender": "Male"
  },
  {
    "id": 33,
    "first_name": "Eran",
    "last_name": "Gillmore",
    "email": "egillmorew@nationalgeographic.com",
    "gender": "Female"
  },
  {
    "id": 34,
    "first_name": "Zorah",
    "last_name": "Jewett",
    "email": "zjewettx@purevolume.com",
    "gender": "Female"
  },
  {
    "id": 35,
    "first_name": "Levon",
    "last_name": "Du Plantier",
    "email": "lduplantiery@topsy.com",
    "gender": "Male"
  },
  {
    "id": 36,
    "first_name": "Rafaelita",
    "last_name": "Elgey",
    "email": "relgeyz@time.com",
    "gender": "Female"
  },
  {
    "id": 37,
    "first_name": "Berrie",
    "last_name": "Garman",
    "email": "bgarman10@mtv.com",
    "gender": "Female"
  },
  {
    "id": 38,
    "first_name": "Baily",
    "last_name": "Lipscombe",
    "email": "blipscombe11@ifeng.com",
    "gender": "Male"
  },
  {
    "id": 39,
    "first_name": "Yulma",
    "last_name": "Gasgarth",
    "email": "ygasgarth12@statcounter.com",
    "gender": "Male"
  },
  {
    "id": 40,
    "first_name": "Bronson",
    "last_name": "Purle",
    "email": "bpurle13@si.edu",
    "gender": "Male"
  },
  {
    "id": 41,
    "first_name": "Ardeen",
    "last_name": "Spinello",
    "email": "aspinello14@lulu.com",
    "gender": "Female"
  },
  {
    "id": 42,
    "first_name": "Melva",
    "last_name": "Probin",
    "email": "mprobin15@scribd.com",
    "gender": "Female"
  },
  {
    "id": 43,
    "first_name": "Mariska",
    "last_name": "Acland",
    "email": "macland16@spotify.com",
    "gender": "Female"
  },
  {
    "id": 44,
    "first_name": "Elliott",
    "last_name": "Methven",
    "email": "emethven17@blinklist.com",
    "gender": "Male"
  },
  {
    "id": 45,
    "first_name": "Lory",
    "last_name": "Shemmans",
    "email": "lshemmans18@mozilla.org",
    "gender": "Female"
  },
  {
    "id": 46,
    "first_name": "Lucienne",
    "last_name": "Sommerville",
    "email": "lsommerville19@timesonline.co.uk",
    "gender": "Female"
  },
  {
    "id": 47,
    "first_name": "Pia",
    "last_name": "Korba",
    "email": "pkorba1a@blogger.com",
    "gender": "Female"
  },
  {
    "id": 48,
    "first_name": "Dolley",
    "last_name": "Labadini",
    "email": "dlabadini1b@ted.com",
    "gender": "Female"
  },
  {
    "id": 49,
    "first_name": "Sibyl",
    "last_name": "Giacoppoli",
    "email": "sgiacoppoli1c@arizona.edu",
    "gender": "Male"
  },
  {
    "id": 50,
    "first_name": "Kathlin",
    "last_name": "Wickey",
    "email": "kwickey1d@cafepress.com",
    "gender": "Female"
  }
]
